{
	"ImportPath": "bitbucket.org/PianoMediaTeam/openslava-2016-golang-workshop",
	"GoVersion": "go1.7",
	"GodepVersion": "v74",
	"Packages": [
		"./..."
	],
	"Deps": [
		{
			"ImportPath": "gopkg.in/twik.v1",
			"Rev": "095ec92da51a26ecbd3fa356858351a407c5217e"
		},
		{
			"ImportPath": "gopkg.in/twik.v1/ast",
			"Rev": "095ec92da51a26ecbd3fa356858351a407c5217e"
		}
	]
}
